<?xml version='1.0' encoding='UTF-8'?>
<!-- Created with Inkscape (http://www.inkscape.org/) and export_objects.py -->
<svg xmlns:cc="http://creativecommons.org/ns#" xmlns:dc="http://purl.org/dc/elements/1.1/" xmlns:inkscape="http://www.inkscape.org/namespaces/inkscape" xmlns:rdf="http://www.w3.org/1999/02/22-rdf-syntax-ns#" xmlns:sodipodi="http://sodipodi.sourceforge.net/DTD/sodipodi-0.dtd" xmlns:xlink="http://www.w3.org/1999/xlink" xmlns="http://www.w3.org/2000/svg" version="1.1" id="svg1" width="16" height="16" viewBox="0 0 16 16">
<sodipodi:namedview 
    objecttolerance="10" 
    gridtolerance="10" 
    guidetolerance="10" 
    id="namedview" 
    showgrid="true" 
    inkscape:zoom="27.166187"
    inkscape:cx="7.4837792"
    inkscape:cy="8.9906751"
    inkscape:window-x="0" 
    inkscape:window-y="27"> 
    <inkscape:grid type="xygrid" id="grid"/>
  </sodipodi:namedview>
  <metadata
     id="metadata1906">
    <rdf:RDF>
      <cc:Work
         rdf:about="">
        <dc:format>image/svg+xml</dc:format>
        <dc:type
           rdf:resource="http://purl.org/dc/dcmitype/StillImage" />
        <cc:license
           rdf:resource="http://creativecommons.org/publicdomain/zero/1.0/" />
        <dc:title>fe Editor new Icons proposal</dc:title>
        <dc:date>13 Nov 2018</dc:date>
        <dc:creator>
          <cc:Agent>
            <dc:title>Ramón Miranda</dc:title>
          </cc:Agent>
        </dc:creator>
        <dc:rights>
          <cc:Agent>
            <dc:title>see the license tab</dc:title>
          </cc:Agent>
        </dc:rights>
        <dc:subject>
          <rdf:Bag>
            <rdf:li>icon ui</rdf:li>
          </rdf:Bag>
        </dc:subject>
        <dc:description>This is a little contribution with Inkscape Project
Ramon Miranda  www.ramonmiranda.com (design and SVG file)
Jabiertxo (SVG stuff to integrate them in UI)</dc:description>
        <dc:publisher>
          <cc:Agent>
            <dc:title></dc:title>
          </cc:Agent>
        </dc:publisher>
        <dc:identifier></dc:identifier>
        <dc:source />
        <dc:relation />
        <dc:language>-</dc:language>
        <dc:coverage />
        <dc:contributor>
          <cc:Agent>
            <dc:title>Ramon Miranda
Jabier Arraiza</dc:title>
          </cc:Agent>
        </dc:contributor>
      </cc:Work>
      <cc:License
         rdf:about="http://creativecommons.org/publicdomain/zero/1.0/">
        <cc:permits
           rdf:resource="http://creativecommons.org/ns#Reproduction" />
        <cc:permits
           rdf:resource="http://creativecommons.org/ns#Distribution" />
        <cc:permits
           rdf:resource="http://creativecommons.org/ns#DerivativeWorks" />
      </cc:License>
    </rdf:RDF>
  </metadata>
  <g inkscape:groupmode="layer"
     id="layercompo"
     inkscape:label="feMorphology">
        <path 
            id="rect22048" 
            d="M 0,0 H 16 V 16 H 0 Z" 
            style="opacity:0;fill:none" />
        <path
           id="path9207"
           d="M 8.9647106,14.419198 C 8.5509147,14.386652 8.1581134,14.155393 7.927026,13.808275 7.5655072,13.265232 7.633012,12.545155 8.0883999,12.086886 c 0.158639,-0.159642 0.3270898,-0.266494 0.534702,-0.339183 0.152618,-0.05344 0.2660139,-0.07 0.5592081,-0.08169 0.2837404,-0.01131 0.4469362,-0.02959 0.6657061,-0.07458 0.6012079,-0.12363 1.1664229,-0.395902 1.6450029,-0.792425 0.134577,-0.111507 0.372673,-0.349803 0.484767,-0.48519 0.375435,-0.4534361 0.645753,-1.003892 0.773617,-1.5753425 0.06916,-0.3090521 0.07963,-0.4160906 0.07962,-0.8136671 -8e-6,-0.4096726 -0.01375,-0.5403081 -0.09043,-0.8593616 C 12.393521,5.6211775 11.26205,4.5357082 9.8029055,4.2472033 9.5964281,4.2063776 9.5027524,4.1964226 9.1537695,4.1782273 8.8065048,4.1601215 8.7105489,4.1423378 8.5233014,4.0613913 8.3192474,3.9731782 8.1018737,3.8018063 7.9667958,3.622656 7.8969212,3.5299862 7.8069541,3.3575369 7.7681114,3.241825 7.5848086,2.6957792 7.7604402,2.0854286 8.201488,1.7357691 8.4319382,1.5530678 8.6601439,1.4608455 8.9547843,1.4313349 c 0.2232444,-0.022355 0.7902991,0.014379 1.1671927,0.075617 1.747538,0.2839408 3.305417,1.2607895 4.311543,2.7035036 0.947982,1.3593405 1.33865,3.024712 1.095758,4.6710969 -0.307199,2.0822886 -1.626569,3.9010936 -3.515281,4.8459656 -0.320292,0.160231 -0.573695,0.264067 -0.921046,0.377409 -0.558489,0.182236 -1.1336693,0.284127 -1.7558537,0.311042 -0.2503423,0.01083 -0.27332,0.01103 -0.3723867,0.0032 z M 9.4633334,13.888344 C 11.153927,13.77899 12.719691,12.964728 13.772679,11.647309 15.259927,9.7865713 15.496112,7.1999968 14.369942,5.1064 14.072592,4.5536136 13.736865,4.1077334 13.281484,3.6608043 12.617994,3.0096279 11.851556,2.5432506 10.958418,2.2472142 10.362032,2.0495463 9.6484689,1.9367232 9.0892286,1.9516753 c -0.1728467,0.00462 -0.195402,0.00776 -0.287925,0.04016 -0.141693,0.049607 -0.217517,0.097885 -0.3292913,0.2096525 -0.1121359,0.1121431 -0.1604754,0.1882463 -0.2091622,0.3292913 -0.04558,0.1320602 -0.055972,0.3091953 -0.026124,0.4453147 0.056164,0.2561342 0.2291258,0.4782044 0.4587205,0.5889586 0.1436797,0.069317 0.2004742,0.08013 0.4812399,0.091657 0.4917391,0.020192 0.8330965,0.078652 1.2462565,0.2134254 0.643061,0.2097778 1.200598,0.5535487 1.687626,1.0405734 0.364675,0.3646832 0.609728,0.710312 0.836025,1.1791808 0.204527,0.4237474 0.327323,0.8449424 0.391312,1.3422121 0.02898,0.2252346 0.02884,0.7580752 -3.58e-4,0.9854003 -0.114351,0.8931387 -0.46758,1.6784016 -1.052433,2.3396796 -0.560421,0.633653 -1.320662,1.095076 -2.146041,1.302542 -0.3186961,0.0801 -0.5869724,0.116364 -0.9796664,0.132418 -0.2029944,0.0083 -0.2604655,0.01452 -0.3265565,0.03538 -0.372068,0.117428 -0.6126236,0.437462 -0.6129279,0.815433 -3.579e-4,0.4098 0.2767816,0.751402 0.681675,0.840318 0.084884,0.01864 0.3191788,0.02076 0.5616423,0.005 z"
           style="opacity:0.4;fill:#000000" />
        <path
           id="path9199"
           d="m 7.0225972,15.215121 c -0.027409,-0.01591 -0.05731,-0.04716 -0.074475,-0.07781 -0.028619,-0.05111 -0.028687,-0.05197 -0.032296,-0.404471 -0.00391,-0.381962 0.00237,-0.445404 0.050405,-0.50837 0.075374,-0.09882 0.2140555,-0.106241 0.3040298,-0.01626 0.065472,0.06547 0.068987,0.09326 0.065114,0.514606 -0.00384,0.417881 -0.00382,0.417752 -0.085013,0.479683 -0.058796,0.04485 -0.1623761,0.05058 -0.2277654,0.01262 z m 0.028616,-1.259025 c -0.037046,-0.01472 -0.088614,-0.06389 -0.1127409,-0.107468 -0.016226,-0.02931 -0.019595,-0.08333 -0.022881,-0.366656 -0.00444,-0.382968 0.00101,-0.459407 0.036505,-0.512071 0.077639,-0.115211 0.2214045,-0.130303 0.3182983,-0.0334 0.064974,0.06497 0.068578,0.09322 0.064856,0.508267 -0.0038,0.423615 -0.00547,0.431866 -0.099264,0.491349 -0.055077,0.03493 -0.1274925,0.04277 -0.184774,0.01999 z m 1.8178319,-0.0903 c -0.3785614,-0.09648 -0.6376524,-0.429347 -0.6376524,-0.81923 0,-0.332317 0.1748977,-0.610398 0.4755126,-0.756061 0.1337711,-0.06481 0.2301781,-0.08323 0.4769801,-0.09109 0.4738087,-0.01509 0.8740406,-0.08666 1.2976206,-0.232025 2.072416,-0.7112 3.274688,-2.8701536 2.784024,-4.9993357 C 12.917595,5.4582465 11.779674,4.2536074 10.289976,3.8180293 9.9295888,3.7126553 9.616381,3.664459 9.1709553,3.6458378 8.9010289,3.6345547 8.8385212,3.6229138 8.7062032,3.5592928 8.5373121,3.478085 8.4044609,3.3461 8.3176509,3.1732748 8.2481629,3.0349359 8.2272292,2.9324938 8.2341773,2.7647839 8.2438137,2.532279 8.3147371,2.3700604 8.4779544,2.2072188 8.5820755,2.1033412 8.6616546,2.0523026 8.7966715,2.0028105 c 0.089137,-0.032675 0.1039958,-0.034533 0.3141566,-0.039329 0.5886651,-0.013449 1.3026609,0.1048226 1.9220639,0.3183698 1.906041,0.65714 3.356445,2.2273466 3.848198,4.1660738 0.132204,0.5212138 0.183525,0.9374833 0.182784,1.4826056 -5.01e-4,0.3495771 -0.01539,0.56185 -0.06114,0.8701645 -0.107629,0.7253716 -0.3642,1.4632818 -0.727301,2.0917498 -0.516821,0.894516 -1.243818,1.630445 -2.136839,2.163063 -0.192706,0.114942 -0.620105,0.324917 -0.82878,0.407173 -0.544811,0.214761 -1.096462,0.348056 -1.66908,0.403305 -0.072473,0.007 -0.2555149,0.01496 -0.4067619,0.01773 -0.2475896,0.0046 -0.2839552,0.0028 -0.3649303,-0.01792 z M 5.5559317,13.452065 C 4.3099154,13.358267 3.15833,12.86878 2.2254144,12.036409 1.42913,11.325953 0.83345246,10.342282 0.56789666,9.2992852 0.43935886,8.7944376 0.39954966,8.4637753 0.40034792,7.9076133 0.40095645,7.499058 0.41240774,7.3488348 0.46860096,7.013884 0.78355224,5.1364296 2.0333665,3.5600838 3.7983701,2.8141508 4.4419755,2.5421481 5.2779223,2.3716998 5.8953426,2.3865768 c 0.154748,0.00373 0.1688804,0.006 0.2328701,0.037418 0.08676,0.042602 0.1602248,0.1160663 0.1991892,0.1991928 0.026765,0.057095 0.030595,0.079619 0.030595,0.179852 0,0.1039779 -0.00312,0.1207056 -0.033559,0.1808149 -0.041567,0.082035 -0.1242459,0.160862 -0.2098136,0.200034 -0.05998,0.027463 -0.082464,0.030474 -0.2889523,0.038696 -0.3948239,0.015722 -0.6880002,0.05634 -1.0352756,0.1434362 -2.5242995,0.6330849 -4.05184396,3.1963953 -3.4097599,5.7217722 0.3889532,1.5297901 1.5433378,2.7783941 3.0352183,3.2829491 0.4979641,0.168414 0.8873934,0.234598 1.5353803,0.260945 0.1320351,0.0054 0.2182579,0.04392 0.3030346,0.135485 0.078856,0.08517 0.1094584,0.163282 0.1094584,0.279394 0,0.126583 -0.031018,0.199214 -0.1254773,0.293849 -0.1052093,0.105399 -0.1681716,0.125005 -0.3942081,0.122754 -0.08914,-8.95e-4 -0.2187877,-0.0059 -0.2881111,-0.0111 z m 1.4890775,-0.776514 c -0.052034,-0.02364 -0.1040745,-0.07944 -0.1169755,-0.125435 -0.00472,-0.01684 -0.00859,-0.203356 -0.00859,-0.414472 0,-0.426829 -0.00115,-0.419727 0.079378,-0.490433 0.094377,-0.08286 0.2550925,-0.05055 0.3112714,0.06259 0.019888,0.04005 0.02214,0.07705 0.025158,0.413481 0.00215,0.239341 -0.00104,0.385695 -0.00908,0.415503 -0.00681,0.02532 -0.028848,0.06477 -0.048966,0.08768 -0.06395,0.07283 -0.1450399,0.09067 -0.2321971,0.05108 z m 0.011932,-1.267406 c -0.064412,-0.02262 -0.1163313,-0.08613 -0.1319671,-0.16147 -0.00826,-0.03983 -0.011483,-0.185447 -0.00914,-0.414079 0.0036,-0.351854 0.00368,-0.352759 0.032292,-0.403862 0.037121,-0.0663 0.1003302,-0.103026 0.1777436,-0.103277 0.073322,-3.57e-4 0.1274567,0.02838 0.171694,0.09076 l 0.034375,0.04848 0.00344,0.376646 c 0.00237,0.257494 -7.16e-4,0.392082 -0.00969,0.425434 -0.016599,0.06165 -0.082632,0.128941 -0.1429603,0.145691 -0.05731,0.01591 -0.069345,0.01549 -0.1257814,-0.0043 z m -0.026586,-1.284841 c -0.052753,-0.02687 -0.09073,-0.08085 -0.1055708,-0.1500578 -0.00807,-0.037675 -0.01128,-0.1848923 -0.00896,-0.4118882 0.00408,-0.3982387 0.00679,-0.4122924 0.091434,-0.4736081 0.08565,-0.062045 0.1877308,-0.053655 0.2629999,0.021613 0.065472,0.065468 0.068987,0.093254 0.065114,0.5146023 -0.00384,0.4178798 -0.00382,0.4177548 -0.085013,0.4796868 -0.05286,0.04032 -0.1605577,0.04994 -0.2200083,0.01965 z M 7.0308563,8.8458161 C 6.9974938,8.829303 6.9718924,8.8046146 6.9506513,8.768482 L 6.9194481,8.7154069 6.9156672,8.383123 c -0.00437,-0.3836912 0.00104,-0.4595331 0.036434,-0.5120715 0.031737,-0.047094 0.089932,-0.086717 0.1416035,-0.09641 0.090687,-0.017014 0.2054285,0.057643 0.231184,0.1504165 0.017687,0.063718 0.017322,0.7448985 -4.295e-4,0.7972366 -0.043772,0.129046 -0.1727894,0.1833277 -0.2936029,0.1235215 z m 0.01463,-1.2666099 c -0.0469,-0.024728 -0.084429,-0.060221 -0.1070742,-0.1012717 -0.016617,-0.030119 -0.018965,-0.08333 -0.018965,-0.4296788 0,-0.43958 -0.00136,-0.4310033 0.079378,-0.5018873 0.094377,-0.082865 0.2550924,-0.050548 0.3112714,0.062594 0.019888,0.040056 0.02214,0.077052 0.025158,0.413481 0.00215,0.2393456 -0.00104,0.3856992 -0.00908,0.4155069 -0.015099,0.056075 -0.072502,0.1238843 -0.1225956,0.1448145 -0.048848,0.020411 -0.1154721,0.018911 -0.1580949,-0.00354 z M 7.0569438,6.3091849 C 6.9895749,6.2853659 6.9414645,6.2272648 6.9255244,6.1504706 6.9165896,6.1074362 6.9134073,5.97059 6.9158342,5.7337501 l 0.00361,-0.3526448 0.030387,-0.051683 c 0.078432,-0.1334057 0.2650714,-0.1382561 0.3505854,-0.00911 l 0.031522,0.047605 0.00344,0.3756084 c 0.00222,0.2431507 -8.95e-4,0.3917668 -0.00889,0.4214277 -0.016098,0.059773 -0.062375,0.1136751 -0.1201148,0.1399032 -0.055202,0.025075 -0.088059,0.026024 -0.1494286,0.00432 z M 7.0761557,5.0407386 C 7.0430335,5.0335284 7.0120478,5.0153842 6.9826523,4.9859877 6.9171555,4.920491 6.9115859,4.87678 6.9158351,4.461903 c 0.00409,-0.4001682 0.00667,-0.4126469 0.098401,-0.4774563 0.1113377,-0.078656 0.2741756,-0.017712 0.3114684,0.1165746 0.015729,0.056634 0.015729,0.7389922 0,0.7956257 C 7.2963217,5.0024435 7.1878692,5.0650623 7.0761557,5.0407386 Z M 7.0223286,3.743408 C 6.996466,3.7279047 6.9637979,3.6940235 6.947851,3.6661736 6.9196904,3.6169895 6.919414,3.6137103 6.9156664,3.2842759 c -0.00437,-0.3836876 0.00104,-0.4595331 0.036434,-0.5120678 0.077639,-0.1152145 0.2214044,-0.130299 0.3182983,-0.033405 0.065335,0.065335 0.068851,0.093221 0.064981,0.515336 l -0.00344,0.3756048 -0.031522,0.047609 C 7.2394519,3.7694285 7.1150343,3.798982 7.0223322,3.743408 Z M 7.0452742,2.4834312 C 7.0025869,2.4648314 6.9399647,2.3951143 6.9282055,2.3531 c -0.00482,-0.017214 -0.00876,-0.2040325 -0.00876,-0.4151454 0,-0.426833 -0.00115,-0.4197311 0.079379,-0.4904325 0.094377,-0.082865 0.2550924,-0.050544 0.3112714,0.062597 0.019821,0.03992 0.022183,0.077374 0.025526,0.4049185 0.00239,0.2353579 -7.518e-4,0.381257 -0.00902,0.4193515 -0.027474,0.126229 -0.165666,0.1994399 -0.2813277,0.1490421 z M 7.0449161,1.2060143 C 6.9928825,1.1823815 6.9408417,1.1265749 6.9279406,1.08058 6.9232155,1.0637342 6.9193495,0.93651734 6.9193495,0.7978742 V 0.54579577 l 0.032006,-0.0544428 c 0.039032,-0.066406 0.098719,-0.10024076 0.1768267,-0.10024076 0.070766,0 0.1257242,0.0295249 0.1692849,0.0909372 l 0.034375,0.0484648 0.00367,0.24406003 c 0.004,0.26615716 -0.00286,0.31525196 -0.052192,0.37388286 -0.03566,0.042376 -0.1083343,0.078591 -0.1577227,0.078591 -0.018904,0 -0.055209,-0.00946 -0.080679,-0.021034 z"
           style="opacity:1;fill:#000000" />
    </g>
</svg>
